<svg xmlns:dc="http://purl.org/dc/elements/1.1/" xmlns:cc="http://creativecommons.org/ns#" xmlns:rdf="http://www.w3.org/1999/02/22-rdf-syntax-ns#" xmlns:svg="http://www.w3.org/2000/svg" xmlns="http://www.w3.org/2000/svg" xmlns:sodipodi="http://sodipodi.sourceforge.net/DTD/sodipodi-0.dtd" xmlns:inkscape="http://www.inkscape.org/namespaces/inkscape" version="1.1" sodipodi:docname="CT_log.svg" inkscape:version="1.0.1 (3bc2e813f5, 2020-09-07)" width="78.92385794174095" height="57.01522841165183" style=""><rect id="backgroundrect" width="100%" height="100%" x="0" y="0" fill="none" stroke="none" class="selected" style=""/>
  <metadata id="metadata72">
    <rdf:RDF>
      <cc:Work rdf:about="">
        <dc:format>image/svg+xml</dc:format>
        <dc:type rdf:resource="http://purl.org/dc/dcmitype/StillImage"/>
        <dc:title>Asset 1</dc:title>
      </cc:Work>
    </rdf:RDF>
  </metadata>
  <defs id="defs70"/>
  <sodipodi:namedview pagecolor="#ffffff" bordercolor="#666666" borderopacity="1" objecttolerance="10" gridtolerance="10" guidetolerance="10" inkscape:pageopacity="0" inkscape:pageshadow="2" inkscape:window-width="1920" inkscape:window-height="1017" id="namedview68" showgrid="false" inkscape:zoom="7.7894863" inkscape:cx="83.51" inkscape:cy="31.5" inkscape:window-x="-8" inkscape:window-y="-8" inkscape:window-maximized="1" inkscape:current-layer="svg66"/>
  <title id="title42">Asset 1</title>
  
<g class="currentLayer" style=""><title>Layer 1</title><g id="Layer_2" data-name="Layer 2" class="" fill="#ffffff" fill-opacity="1">
    <g id="Layer_2-2" data-name="Layer 2" fill="#ffffff" fill-opacity="1">
      <path d="M72.16,11.36,77.84,0H36.93L34.09,8.12V0H28.41a28.41,28.41,0,0,0,0,56.82H60.76L55.08,45.45H47l8.06-2.82V14.2L47,11.36ZM28.41,45.45a17,17,0,1,1,0-34.09H43.72V45.45Z" id="path44" fill="#ffffff" fill-opacity="1"/>
    </g>
  </g></g></svg>